…
})
```

### 5) Create a dataframe for plot

``` r
df <- tibble(
  n = ns,
  sim = prob_sim,
  exact = prob_exact
)
df
```

    ## # A tibble: 49 × 3
    ##        n    sim   exact
    ##    <int>  <dbl>   <dbl>
    ##  1     2 0.0033 0.00274
    ##  2     3 0.0079 0.00820
    ##  3     4 0.0158 0.0164 
    ##  4     5 0.0248 0.0271 
    ##  5     6 0.0387 0.0405 
    ##  6     7 0.057  0.0562 
    ##  7     8 0.0749 0.0743 
    ##  8     9 0.0885 0.0946 
    ##  9    10 0.116  0.117  
    ## 10    11 0.140  0.141  
    ## # ℹ 39 more rows
…
